{
  "status": 1,
  "data": {
    "Runes": [
      {
        "RuneId": "100008",
        "RuneName": "AM Renaissance",
        "Color": "2",
        "LockSkill1": "400",
        "LockSkill2": "401",
        "LockSkill3": "402",
        "LockSkill4": "403",
        "LockSkill5": "404",
        "SkillTimes": "4",
        "Condition": "your opponent has more than 1 Swamp card in the cemetery"
      },
      {
        "RuneId": "100014",
        "RuneName": "AM Bouclier de Lave",
        "Color": "2",
        "LockSkill1": "683",
        "LockSkill2": "684",
        "LockSkill3": "685",
        "LockSkill4": "686",
        "LockSkill5": "687",
        "SkillTimes": "5",
        "Condition": "your opponent has more than 1 Mountain card on the battlefield"
      },
      {
        "RuneId": "100017",
        "RuneName": "AM Tsunami",
        "Color": "3",
        "LockSkill1": "570",
        "LockSkill2": "571",
        "LockSkill3": "572",
        "LockSkill4": "573",
        "LockSkill5": "574",
        "SkillTimes": "4",
        "Condition": "your Hero's HP is less than 40%"
      },
      {
        "RuneId": "100024",
        "RuneName": "AM Envol",
        "Property": "3",
        "Color": "2",
        "SkillTimes": "4",
        "Condition": "you have more than 1 Forest card in the cemetery"
      },
      {
        "RuneId": "100025",
        "RuneName": "AM Feu de Forge",
        "Color": "3",
        "LockSkill1": "470",
        "LockSkill2": "471",
        "LockSkill3": "472",
        "LockSkill4": "473",
        "LockSkill5": "474",
        "SkillTimes": "4",
        "Condition": "your Hero's HP is less than 50%"
      },
      {
        "RuneId": "110000",
        "RuneName": "AM Storm",
        "Color": "3",
        "LockSkill1": "101423",
        "LockSkill2": "101424",
        "LockSkill3": "101425",
        "LockSkill4": "101426",
        "LockSkill5": "101427",
        "SkillTimes": "5",
        "Condition": "you have more than 1 Tundra card on the battlefield"
      }
    ]
  }
}
