{
  "status": 1,
  "data": {
    "Runes": [
      {
        "RuneId": "1",
        "RuneName": "Fire Fist",
        "Property": "4",
        "Color": "1",
        "LockSkill1": "168",
        "LockSkill2": "169",
        "LockSkill3": "170",
        "LockSkill4": "171",
        "LockSkill5": "172",
        "Price": "800",
        "SkillTimes": "3",
        "Condition": "your opponent has more than 2 cards on the battlefield ",
        "SkillConditionSlide": "2",
        "SkillConditionType": "4",
        "SkillConditionRace": "0",
        "SkillConditionColor": "0",
        "SkillConditionCompare": "1",
        "SkillConditionValue": "2",
        "ThinkGet": "1",
        "Fragment": "0",
        "BaseExp": "20",
        "ExpArray": [
          "0",
          "40",
          "200",
          "560",
          "1200"
        ]
      },
      {
        "RuneId": "2",
        "RuneName": "Heat Wave",
        "Property": "4",
        "Color": "1",
        "LockSkill1": "176",
        "LockSkill2": "177",
        "LockSkill3": "178",
        "LockSkill4": "179",
        "LockSkill5": "180",
        "Price": "800",
        "SkillTimes": "3",
        "Condition": "your Hero's HP is less than 60%",
        "SkillConditionSlide": "1",
        "SkillConditionType": "6",
        "SkillConditionRace": "0",
        "SkillConditionColor": "0",
        "SkillConditionCompare": "3",
        "SkillConditionValue": "60",
        "ThinkGet": "1",
        "Fragment": "0",
        "BaseExp": "20",
        "ExpArray": [
          "0",
          "40",
          "200",
          "560",
          "1200"
        ]
      },
      {
        "RuneId": "3",
        "RuneName": "Fire Flow",
        "Property": "4",
        "Color": "2",
        "LockSkill1": "170",
        "LockSkill2": "171",
        "LockSkill3": "172",
        "LockSkill4": "173",
        "LockSkill5": "174",
        "Price": "1000",
        "SkillTimes": "3",
        "Condition": "the battle has exceeded 12 rounds",
        "SkillConditionSlide": "1",
        "SkillConditionType": "5",
        "SkillConditionRace": "0",
        "SkillConditionColor": "0",
        "SkillConditionCompare": "1",
        "SkillConditionValue": "12",
        "ThinkGet": "1",
        "Fragment": "0",
        "BaseExp": "24",
        "ExpArray": [
          "0",
          "50",
          "250",
          "700",
          "1500"
        ]
      },
      {
        "RuneId": "4",
        "RuneName": "Red Lotus",
        "Property": "4",
        "Color": "2",
        "LockSkill1": "259",
        "LockSkill2": "260",
        "LockSkill3": "261",
        "LockSkill4": "262",
        "LockSkill5": "263",
        "Price": "1000",
        "SkillTimes": "5",
        "Condition": "your opponent has more than 1 Forest card on the battlefield",
        "SkillConditionSlide": "2",
        "SkillConditionType": "4",
        "SkillConditionRace": "2",
        "SkillConditionColor": "0",
        "SkillConditionCompare": "1",
        "SkillConditionValue": "1",
        "ThinkGet": "1",
        "Fragment": "0",
        "BaseExp": "24",
        "ExpArray": [
          "0",
          "50",
          "250",
          "700",
          "1500"
        ]
      },
      {
        "RuneId": "5",
        "RuneName": "Charred",
        "Property": "4",
        "Color": "3",
        "LockSkill1": "638",
        "LockSkill2": "639",
        "LockSkill3": "640",
        "LockSkill4": "641",
        "LockSkill5": "642",
        "Price": "6000",
        "SkillTimes": "4",
        "Condition": "you have more than 1 Mountain card in the cemetery",
        "SkillConditionSlide": "1",
        "SkillConditionType": "2",
        "SkillConditionRace": "4",
        "SkillConditionColor": "0",
        "SkillConditionCompare": "1",
        "SkillConditionValue": "1",
        "ThinkGet": "0",
        "Fragment": "8",
        "BaseExp": "150",
        "ExpArray": [
          "0",
          "80",
          "400",
          "1120",
          "2400"
        ]
      },
      {
        "RuneId": "6",
        "RuneName": "Fire Forge",
        "Property": "4",
        "Color": "3",
        "LockSkill1": "73",
        "LockSkill2": "74",
        "LockSkill3": "75",
        "LockSkill4": "76",
        "LockSkill5": "77",
        "Price": "4000",
        "SkillTimes": "4",
        "Condition": "you have more than 1 Mountain card in the cemetery",
        "SkillConditionSlide": "1",
        "SkillConditionType": "2",
        "SkillConditionRace": "4",
        "SkillConditionColor": "0",
        "SkillConditionCompare": "1",
        "SkillConditionValue": "1",
        "ThinkGet": "0",
        "Fragment": "6",
        "BaseExp": "100",
        "ExpArray": [
          "0",
          "80",
          "400",
          "1120",
          "2400"
        ]
      },
      {
        "RuneId": "7",
        "RuneName": "Eruption",
        "Property": "4",
        "Color": "3",
        "LockSkill1": "180",
        "LockSkill2": "181",
        "LockSkill3": "182",
        "LockSkill4": "183",
        "LockSkill5": "184",
        "Price": "4000",
        "SkillTimes": "4",
        "Condition": "your Hero's HP is less than 50%",
        "SkillConditionSlide": "1",
        "SkillConditionType": "6",
        "SkillConditionRace": "0",
        "SkillConditionColor": "0",
        "SkillConditionCompare": "3",
        "SkillConditionValue": "50",
        "ThinkGet": "1",
        "Fragment": "4",
        "BaseExp": "100",
        "ExpArray": [
          "0",
          "80",
          "400",
          "1120",
          "2400"
        ]
      },
      {
        "RuneId": "8",
        "RuneName": "Blood Stone",
        "Property": "4",
        "Color": "4",
        "LockSkill1": "401",
        "LockSkill2": "402",
        "LockSkill3": "403",
        "LockSkill4": "404",
        "LockSkill5": "405",
        "Price": "15000",
        "SkillTimes": "5",
        "Condition": "you have more than 1 Mountain card on the battlefield",
        "SkillConditionSlide": "1",
        "SkillConditionType": "4",
        "SkillConditionRace": "4",
        "SkillConditionColor": "0",
        "SkillConditionCompare": "1",
        "SkillConditionValue": "1",
        "ThinkGet": "0",
        "Fragment": "10",
        "BaseExp": "300",
        "ExpArray": [
          "0",
          "100",
          "500",
          "1400",
          "3000"
        ]
      },
      {
        "RuneId": "9",
        "RuneName": "Explosion",
        "Property": "4",
        "Color": "4",
        "LockSkill1": "500",
        "LockSkill2": "501",
        "LockSkill3": "502",
        "LockSkill4": "503",
        "LockSkill5": "504",
        "Price": "12000",
        "SkillTimes": "5",
        "Condition": "your opponent has more than 1 Forest card on the battlefield",
        "SkillConditionSlide": "2",
        "SkillConditionType": "4",
        "SkillConditionRace": "2",
        "SkillConditionColor": "0",
        "SkillConditionCompare": "1",
        "SkillConditionValue": "1",
        "ThinkGet": "1",
        "Fragment": "8",
        "BaseExp": "240",
        "ExpArray": [
          "0",
          "100",
          "500",
          "1400",
          "3000"
        ]
      },
      {
        "RuneId": "10",
        "RuneName": "Inferno",
        "Property": "4",
        "Color": "5",
        "LockSkill1": "191",
        "LockSkill2": "192",
        "LockSkill3": "193",
        "LockSkill4": "194",
        "LockSkill5": "195",
        "Price": "20000",
        "SkillTimes": "5",
        "Condition": "you have more than 1 Mountain card in the cemetery",
        "SkillConditionSlide": "1",
        "SkillConditionType": "2",
        "SkillConditionRace": "4",
        "SkillConditionColor": "0",
        "SkillConditionCompare": "1",
        "SkillConditionValue": "1",
        "ThinkGet": "0",
        "Fragment": "10",
        "BaseExp": "400",
        "ExpArray": [
          "0",
          "120",
          "600",
          "1680",
          "3600"
        ]
      },
      {
        "RuneId": "11",
        "RuneName": "Frost",
        "Property": "2",
        "Color": "1",
        "LockSkill1": "138",
        "LockSkill2": "139",
        "LockSkill3": "140",
        "LockSkill4": "141",
        "LockSkill5": "142",
        "Price": "800",
        "SkillTimes": "3",
        "Condition": "you have more than 0 card in the cemetery",
        "SkillConditionSlide": "1",
        "SkillConditionType": "2",
        "SkillConditionRace": "0",
        "SkillConditionColor": "0",
        "SkillConditionCompare": "1",
        "SkillConditionValue": "0",
        "ThinkGet": "1",
        "Fragment": "0",
        "BaseExp": "20",
        "ExpArray": [
          "0",
          "40",
          "200",
          "560",
          "1200"
        ]
      },
      {
        "RuneId": "12",
        "RuneName": "Coldwave",
        "Property": "2",
        "Color": "1",
        "LockSkill1": "146",
        "LockSkill2": "147",
        "LockSkill3": "148",
        "LockSkill4": "149",
        "LockSkill5": "150",
        "Price": "800",
        "SkillTimes": "3",
        "Condition": "you have less than 2 cards in your deck",
        "SkillConditionSlide": "1",
        "SkillConditionType": "3",
        "SkillConditionRace": "0",
        "SkillConditionColor": "0",
        "SkillConditionCompare": "3",
        "SkillConditionValue": "2",
        "ThinkGet": "1",
        "Fragment": "0",
        "BaseExp": "20",
        "ExpArray": [
          "0",
          "40",
          "200",
          "560",
          "1200"
        ]
      },
      {
        "RuneId": "13",
        "RuneName": "Icicle",
        "Property": "2",
        "Color": "2",
        "LockSkill1": "140",
        "LockSkill2": "141",
        "LockSkill3": "142",
        "LockSkill4": "143",
        "LockSkill5": "144",
        "Price": "1000",
        "SkillTimes": "3",
        "Condition": "the battle has exceeded 14 rounds",
        "SkillConditionSlide": "1",
        "SkillConditionType": "5",
        "SkillConditionRace": "0",
        "SkillConditionColor": "0",
        "SkillConditionCompare": "1",
        "SkillConditionValue": "14",
        "ThinkGet": "1",
        "Fragment": "0",
        "BaseExp": "24",
        "ExpArray": [
          "0",
          "50",
          "250",
          "700",
          "1500"
        ]
      },
      {
        "RuneId": "14",
        "RuneName": "Ice Wall",
        "Property": "2",
        "Color": "2",
        "LockSkill1": "681",
        "LockSkill2": "682",
        "LockSkill3": "683",
        "LockSkill4": "684",
        "LockSkill5": "685",
        "Price": "1000",
        "SkillTimes": "3",
        "Condition": "your opponent has more than 1 Mountain card on the battlefield",
        "SkillConditionSlide": "2",
        "SkillConditionType": "4",
        "SkillConditionRace": "4",
        "SkillConditionColor": "0",
        "SkillConditionCompare": "1",
        "SkillConditionValue": "1",
        "ThinkGet": "1",
        "Fragment": "0",
        "BaseExp": "24",
        "ExpArray": [
          "0",
          "50",
          "250",
          "700",
          "1500"
        ]
      },
      {
        "RuneId": "15",
        "RuneName": "Blizzard",
        "Property": "2",
        "Color": "3",
        "LockSkill1": "429",
        "LockSkill2": "430",
        "LockSkill3": "431",
        "LockSkill4": "432",
        "LockSkill5": "433",
        "Price": "4000",
        "SkillTimes": "4",
        "Condition": "you have more than 1 Tundra card in the cemetery",
        "SkillConditionSlide": "1",
        "SkillConditionType": "2",
        "SkillConditionRace": "1",
        "SkillConditionColor": "0",
        "SkillConditionCompare": "1",
        "SkillConditionValue": "1",
        "ThinkGet": "1",
        "Fragment": "4",
        "BaseExp": "100",
        "ExpArray": [
          "0",
          "80",
          "400",
          "1120",
          "2400"
        ]
      },
      {
        "RuneId": "16",
        "RuneName": "Clear Spring",
        "Property": "2",
        "Color": "3",
        "LockSkill1": "270",
        "LockSkill2": "271",
        "LockSkill3": "272",
        "LockSkill4": "273",
        "LockSkill5": "274",
        "Price": "4000",
        "SkillTimes": "4",
        "Condition": "you have more than 1 Tundra card on the battlefield",
        "SkillConditionSlide": "1",
        "SkillConditionType": "4",
        "SkillConditionRace": "1",
        "SkillConditionColor": "0",
        "SkillConditionCompare": "1",
        "SkillConditionValue": "1",
        "ThinkGet": "0",
        "Fragment": "6",
        "BaseExp": "100",
        "ExpArray": [
          "0",
          "80",
          "400",
          "1120",
          "2400"
        ]
      },
      {
        "RuneId": "17",
        "RuneName": "Tsunami",
        "Property": "2",
        "Color": "3",
        "LockSkill1": "570",
        "LockSkill2": "571",
        "LockSkill3": "572",
        "LockSkill4": "573",
        "LockSkill5": "574",
        "Price": "6000",
        "SkillTimes": "4",
        "Condition": "your Hero's HP is less than 50%",
        "SkillConditionSlide": "1",
        "SkillConditionType": "6",
        "SkillConditionRace": "0",
        "SkillConditionColor": "0",
        "SkillConditionCompare": "3",
        "SkillConditionValue": "50",
        "ThinkGet": "0",
        "Fragment": "6",
        "BaseExp": "150",
        "ExpArray": [
          "0",
          "80",
          "400",
          "1120",
          "2400"
        ]
      },
      {
        "RuneId": "18",
        "RuneName": "Avalanche",
        "Property": "2",
        "Color": "4",
        "LockSkill1": "151",
        "LockSkill2": "152",
        "LockSkill3": "153",
        "LockSkill4": "154",
        "LockSkill5": "155",
        "Price": "12000",
        "SkillTimes": "4",
        "Condition": "your opponent has more than 1 Mountain card on the battlefield",
        "SkillConditionSlide": "2",
        "SkillConditionType": "4",
        "SkillConditionRace": "4",
        "SkillConditionColor": "0",
        "SkillConditionCompare": "1",
        "SkillConditionValue": "1",
        "ThinkGet": "1",
        "Fragment": "8",
        "BaseExp": "240",
        "ExpArray": [
          "0",
          "100",
          "500",
          "1400",
          "3000"
        ]
      },
      {
        "RuneId": "19",
        "RuneName": "Arctic Freeze",
        "Property": "2",
        "Color": "4",
        "LockSkill1": "660",
        "LockSkill2": "661",
        "LockSkill3": "662",
        "LockSkill4": "663",
        "LockSkill5": "664",
        "Price": "15000",
        "SkillTimes": "3",
        "Condition": "you have more than 2 Tundra card in the cemetery",
        "SkillConditionSlide": "1",
        "SkillConditionType": "2",
        "SkillConditionRace": "1",
        "SkillConditionColor": "0",
        "SkillConditionCompare": "1",
        "SkillConditionValue": "2",
        "ThinkGet": "0",
        "Fragment": "12",
        "BaseExp": "300",
        "ExpArray": [
          "0",
          "100",
          "500",
          "1400",
          "3000"
        ]
      },
      {
        "RuneId": "20",
        "RuneName": "Permafrost",
        "Property": "2",
        "Color": "5",
        "LockSkill1": "161",
        "LockSkill2": "162",
        "LockSkill3": "163",
        "LockSkill4": "164",
        "LockSkill5": "165",
        "Price": "20000",
        "SkillTimes": "4",
        "Condition": "you have more than 1 Tundra card on the battlefield",
        "SkillConditionSlide": "1",
        "SkillConditionType": "4",
        "SkillConditionRace": "1",
        "SkillConditionColor": "0",
        "SkillConditionCompare": "1",
        "SkillConditionValue": "1",
        "ThinkGet": "0",
        "Fragment": "10",
        "BaseExp": "400",
        "ExpArray": [
          "0",
          "120",
          "600",
          "1680",
          "3600"
        ]
      },
      {
        "RuneId": "21",
        "RuneName": "Shock",
        "Property": "3",
        "Color": "1",
        "LockSkill1": "108",
        "LockSkill2": "109",
        "LockSkill3": "110",
        "LockSkill4": "111",
        "LockSkill5": "112",
        "Price": "800",
        "SkillTimes": "3",
        "Condition": "your opponent has more than 2 cards in the cemetery",
        "SkillConditionSlide": "2",
        "SkillConditionType": "2",
        "SkillConditionRace": "0",
        "SkillConditionColor": "0",
        "SkillConditionCompare": "1",
        "SkillConditionValue": "2",
        "ThinkGet": "1",
        "Fragment": "0",
        "BaseExp": "20",
        "ExpArray": [
          "0",
          "40",
          "200",
          "560",
          "1200"
        ]
      },
      {
        "RuneId": "22",
        "RuneName": "Thunderstorm",
        "Property": "3",
        "Color": "1",
        "LockSkill1": "116",
        "LockSkill2": "117",
        "LockSkill3": "118",
        "LockSkill4": "119",
        "LockSkill5": "120",
        "Price": "800",
        "SkillTimes": "3",
        "Condition": "your Hero's HP is less than 50%",
        "SkillConditionSlide": "1",
        "SkillConditionType": "6",
        "SkillConditionRace": "0",
        "SkillConditionColor": "0",
        "SkillConditionCompare": "3",
        "SkillConditionValue": "50",
        "ThinkGet": "1",
        "Fragment": "0",
        "BaseExp": "20",
        "ExpArray": [
          "0",
          "40",
          "200",
          "560",
          "1200"
        ]
      },
      {
        "RuneId": "23",
        "RuneName": "Thunderbolt",
        "Property": "3",
        "Color": "2",
        "LockSkill1": "110",
        "LockSkill2": "111",
        "LockSkill3": "112",
        "LockSkill4": "113",
        "LockSkill5": "114",
        "Price": "1000",
        "SkillTimes": "3",
        "Condition": "your opponent has more than 1 Swamp card in the cemetery",
        "SkillConditionSlide": "2",
        "SkillConditionType": "2",
        "SkillConditionRace": "3",
        "SkillConditionColor": "0",
        "SkillConditionCompare": "1",
        "SkillConditionValue": "1",
        "ThinkGet": "1",
        "Fragment": "0",
        "BaseExp": "24",
        "ExpArray": [
          "0",
          "50",
          "250",
          "700",
          "1500"
        ]
      },
      {
        "RuneId": "24",
        "RuneName": "Leaf",
        "Property": "3",
        "Color": "2",
        "LockSkill1": "279",
        "LockSkill2": "280",
        "LockSkill3": "281",
        "LockSkill4": "282",
        "LockSkill5": "283",
        "Price": "1000",
        "SkillTimes": "4",
        "Condition": "the battle has exceeded 14 rounds",
        "SkillConditionSlide": "1",
        "SkillConditionType": "5",
        "SkillConditionRace": "0",
        "SkillConditionColor": "0",
        "SkillConditionCompare": "1",
        "SkillConditionValue": "14",
        "ThinkGet": "1",
        "Fragment": "0",
        "BaseExp": "24",
        "ExpArray": [
          "0",
          "50",
          "250",
          "700",
          "1500"
        ]
      },
      {
        "RuneId": "25",
        "RuneName": "Revival",
        "Property": "3",
        "Color": "3",
        "LockSkill1": "470",
        "LockSkill2": "471",
        "LockSkill3": "472",
        "LockSkill4": "473",
        "LockSkill5": "474",
        "Price": "6000",
        "SkillTimes": "4",
        "Condition": "you have more than 1 Forest card in the cemetery",
        "SkillConditionSlide": "1",
        "SkillConditionType": "2",
        "SkillConditionRace": "2",
        "SkillConditionColor": "0",
        "SkillConditionCompare": "1",
        "SkillConditionValue": "1",
        "ThinkGet": "0",
        "Fragment": "6",
        "BaseExp": "150",
        "ExpArray": [
          "0",
          "80",
          "400",
          "1120",
          "2400"
        ]
      },
      {
        "RuneId": "26",
        "RuneName": "Tornado",
        "Property": "3",
        "Color": "3",
        "LockSkill1": "119",
        "LockSkill2": "120",
        "LockSkill3": "121",
        "LockSkill4": "122",
        "LockSkill5": "123",
        "Price": "4000",
        "SkillTimes": "4",
        "Condition": "your Hero's HP is less than 60%",
        "SkillConditionSlide": "1",
        "SkillConditionType": "6",
        "SkillConditionRace": "0",
        "SkillConditionColor": "0",
        "SkillConditionCompare": "3",
        "SkillConditionValue": "60",
        "ThinkGet": "1",
        "Fragment": "4",
        "BaseExp": "100",
        "ExpArray": [
          "0",
          "80",
          "400",
          "1120",
          "2400"
        ]
      },
      {
        "RuneId": "27",
        "RuneName": "Spring Breeze",
        "Property": "3",
        "Color": "3",
        "LockSkill1": "450",
        "LockSkill2": "451",
        "LockSkill3": "452",
        "LockSkill4": "453",
        "LockSkill5": "454",
        "Price": "4000",
        "SkillTimes": "4",
        "Condition": "you have more than 1 Forest card in your hand",
        "SkillConditionSlide": "1",
        "SkillConditionType": "1",
        "SkillConditionRace": "2",
        "SkillConditionColor": "0",
        "SkillConditionCompare": "1",
        "SkillConditionValue": "1",
        "ThinkGet": "0",
        "Fragment": "6",
        "BaseExp": "100",
        "ExpArray": [
          "0",
          "80",
          "400",
          "1120",
          "2400"
        ]
      },
      {
        "RuneId": "28",
        "RuneName": "Transparency",
        "Property": "3",
        "Color": "4",
        "LockSkill1": "551",
        "LockSkill2": "552",
        "LockSkill3": "553",
        "LockSkill4": "554",
        "LockSkill5": "555",
        "Price": "15000",
        "SkillTimes": "4",
        "Condition": "your opponent has more than 1 Swamp card on the battlefield.",
        "SkillConditionSlide": "2",
        "SkillConditionType": "4",
        "SkillConditionRace": "3",
        "SkillConditionColor": "0",
        "SkillConditionCompare": "1",
        "SkillConditionValue": "1",
        "ThinkGet": "1",
        "Fragment": "8",
        "BaseExp": "240",
        "ExpArray": [
          "0",
          "100",
          "500",
          "1400",
          "3000"
        ]
      },
      {
        "RuneId": "29",
        "RuneName": "Thunder Shield",
        "Property": "3",
        "Color": "4",
        "LockSkill1": "96",
        "LockSkill2": "97",
        "LockSkill3": "98",
        "LockSkill4": "99",
        "LockSkill5": "100",
        "Price": "12000",
        "SkillTimes": "4",
        "Condition": "you have more than 1 Forest card on the battlefield",
        "SkillConditionSlide": "1",
        "SkillConditionType": "4",
        "SkillConditionRace": "2",
        "SkillConditionColor": "0",
        "SkillConditionCompare": "1",
        "SkillConditionValue": "1",
        "ThinkGet": "0",
        "Fragment": "12",
        "BaseExp": "300",
        "ExpArray": [
          "0",
          "100",
          "500",
          "1400",
          "3000"
        ]
      },
      {
        "RuneId": "30",
        "RuneName": "Lightning",
        "Property": "3",
        "Color": "5",
        "LockSkill1": "131",
        "LockSkill2": "132",
        "LockSkill3": "133",
        "LockSkill4": "134",
        "LockSkill5": "135",
        "Price": "20000",
        "SkillTimes": "4",
        "Condition": "you have more than 1 Forest card on battlefield",
        "SkillConditionSlide": "1",
        "SkillConditionType": "4",
        "SkillConditionRace": "2",
        "SkillConditionColor": "0",
        "SkillConditionCompare": "1",
        "SkillConditionValue": "1",
        "ThinkGet": "0",
        "Fragment": "10",
        "BaseExp": "400",
        "ExpArray": [
          "0",
          "120",
          "600",
          "1680",
          "3600"
        ]
      },
      {
        "RuneId": "31",
        "RuneName": "Wasteland",
        "Property": "1",
        "Color": "1",
        "LockSkill1": "208",
        "LockSkill2": "209",
        "LockSkill3": "210",
        "LockSkill4": "211",
        "LockSkill5": "212",
        "Price": "800",
        "SkillTimes": "3",
        "Condition": "your Hero's HP is less than 60%",
        "SkillConditionSlide": "1",
        "SkillConditionType": "6",
        "SkillConditionRace": "0",
        "SkillConditionColor": "0",
        "SkillConditionCompare": "3",
        "SkillConditionValue": "60",
        "ThinkGet": "1",
        "Fragment": "0",
        "BaseExp": "20",
        "ExpArray": [
          "0",
          "40",
          "200",
          "560",
          "1200"
        ]
      },
      {
        "RuneId": "32",
        "RuneName": "Methane",
        "Property": "1",
        "Color": "1",
        "LockSkill1": "216",
        "LockSkill2": "217",
        "LockSkill3": "218",
        "LockSkill4": "219",
        "LockSkill5": "220",
        "Price": "800",
        "SkillTimes": "3",
        "Condition": "your opponent has more than 1 card on the battlefield",
        "SkillConditionSlide": "2",
        "SkillConditionType": "4",
        "SkillConditionRace": "0",
        "SkillConditionColor": "0",
        "SkillConditionCompare": "1",
        "SkillConditionValue": "1",
        "ThinkGet": "1",
        "Fragment": "0",
        "BaseExp": "20",
        "ExpArray": [
          "0",
          "40",
          "200",
          "560",
          "1200"
        ]
      },
      {
        "RuneId": "33",
        "RuneName": "Mineral",
        "Property": "1",
        "Color": "2",
        "LockSkill1": "439",
        "LockSkill2": "440",
        "LockSkill3": "441",
        "LockSkill4": "442",
        "LockSkill5": "443",
        "Price": "1000",
        "SkillTimes": "3",
        "Condition": "your opponent has more than 1 card in their hand",
        "SkillConditionSlide": "2",
        "SkillConditionType": "1",
        "SkillConditionRace": "0",
        "SkillConditionColor": "0",
        "SkillConditionCompare": "1",
        "SkillConditionValue": "1",
        "ThinkGet": "1",
        "Fragment": "0",
        "BaseExp": "24",
        "ExpArray": [
          "0",
          "50",
          "250",
          "700",
          "1500"
        ]
      },
      {
        "RuneId": "34",
        "RuneName": "Arsenopyrite",
        "Property": "1",
        "Color": "2",
        "LockSkill1": "210",
        "LockSkill2": "211",
        "LockSkill3": "212",
        "LockSkill4": "213",
        "LockSkill5": "214",
        "Price": "1000",
        "SkillTimes": "3",
        "Condition": "the battle has exceeded 12 rounds",
        "SkillConditionSlide": "1",
        "SkillConditionType": "5",
        "SkillConditionRace": "0",
        "SkillConditionColor": "0",
        "SkillConditionCompare": "1",
        "SkillConditionValue": "12",
        "ThinkGet": "1",
        "Fragment": "0",
        "BaseExp": "24",
        "ExpArray": [
          "0",
          "50",
          "250",
          "700",
          "1500"
        ]
      },
      {
        "RuneId": "35",
        "RuneName": "Stonewall",
        "Property": "1",
        "Color": "3",
        "LockSkill1": "250",
        "LockSkill2": "251",
        "LockSkill3": "252",
        "LockSkill4": "253",
        "LockSkill5": "254",
        "Price": "4000",
        "SkillTimes": "4",
        "Condition": "you have more than 1 Swamp card on the battlefield",
        "SkillConditionSlide": "1",
        "SkillConditionType": "4",
        "SkillConditionRace": "3",
        "SkillConditionColor": "0",
        "SkillConditionCompare": "1",
        "SkillConditionValue": "1",
        "ThinkGet": "0",
        "Fragment": "6",
        "BaseExp": "100",
        "ExpArray": [
          "0",
          "80",
          "400",
          "1120",
          "2400"
        ]
      },
      {
        "RuneId": "36",
        "RuneName": "Swampwater",
        "Property": "1",
        "Color": "3",
        "LockSkill1": "220",
        "LockSkill2": "221",
        "LockSkill3": "222",
        "LockSkill4": "223",
        "LockSkill5": "224",
        "Price": "4000",
        "SkillTimes": "4",
        "Condition": "your opponent has more than 1 Tundra card in the cemetery",
        "SkillConditionSlide": "2",
        "SkillConditionType": "2",
        "SkillConditionRace": "1",
        "SkillConditionColor": "0",
        "SkillConditionCompare": "1",
        "SkillConditionValue": "1",
        "ThinkGet": "1",
        "Fragment": "4",
        "BaseExp": "100",
        "ExpArray": [
          "0",
          "80",
          "400",
          "1120",
          "2400"
        ]
      },
      {
        "RuneId": "37",
        "RuneName": "Stone Forest",
        "Property": "1",
        "Color": "3",
        "LockSkill1": "613",
        "LockSkill2": "614",
        "LockSkill3": "615",
        "LockSkill4": "616",
        "LockSkill5": "617",
        "Price": "6000",
        "SkillTimes": "4",
        "Condition": "you have more than 1 Swamp card in the cemetery",
        "SkillConditionSlide": "1",
        "SkillConditionType": "2",
        "SkillConditionRace": "3",
        "SkillConditionColor": "0",
        "SkillConditionCompare": "1",
        "SkillConditionValue": "1",
        "ThinkGet": "0",
        "Fragment": "8",
        "BaseExp": "150",
        "ExpArray": [
          "0",
          "80",
          "400",
          "1120",
          "2400"
        ]
      },
      {
        "RuneId": "38",
        "RuneName": "Red Valley",
        "Property": "1",
        "Color": "4",
        "LockSkill1": "55",
        "LockSkill2": "56",
        "LockSkill3": "57",
        "LockSkill4": "58",
        "LockSkill5": "59",
        "Price": "12000",
        "SkillTimes": "5",
        "Condition": "you have more than 1 Swamp card on the battlefield",
        "SkillConditionSlide": "1",
        "SkillConditionType": "4",
        "SkillConditionRace": "3",
        "SkillConditionColor": "0",
        "SkillConditionCompare": "1",
        "SkillConditionValue": "1",
        "ThinkGet": "0",
        "Fragment": "10",
        "BaseExp": "240",
        "ExpArray": [
          "0",
          "100",
          "500",
          "1400",
          "3000"
        ]
      },
      {
        "RuneId": "39",
        "RuneName": "Quicksand",
        "Property": "1",
        "Color": "4",
        "LockSkill1": "591",
        "LockSkill2": "592",
        "LockSkill3": "593",
        "LockSkill4": "594",
        "LockSkill5": "595",
        "Price": "15000",
        "SkillTimes": "4",
        "Condition": "your opponent has more than 1 Tundra card on the battlefield",
        "SkillConditionSlide": "2",
        "SkillConditionType": "4",
        "SkillConditionRace": "1",
        "SkillConditionColor": "0",
        "SkillConditionCompare": "1",
        "SkillConditionValue": "1",
        "ThinkGet": "1",
        "Fragment": "8",
        "BaseExp": "300",
        "ExpArray": [
          "0",
          "100",
          "500",
          "1400",
          "3000"
        ]
      },
      {
        "RuneId": "40",
        "RuneName": "Death Zone",
        "Property": "1",
        "Color": "5",
        "LockSkill1": "231",
        "LockSkill2": "232",
        "LockSkill3": "233",
        "LockSkill4": "234",
        "LockSkill5": "235",
        "Price": "20000",
        "SkillTimes": "5",
        "Condition": "you have more than 1 Swamp card in the cemetery",
        "SkillConditionSlide": "1",
        "SkillConditionType": "2",
        "SkillConditionRace": "3",
        "SkillConditionColor": "0",
        "SkillConditionCompare": "1",
        "SkillConditionValue": "1",
        "ThinkGet": "0",
        "Fragment": "10",
        "BaseExp": "400",
        "ExpArray": [
          "0",
          "120",
          "600",
          "1680",
          "3600"
        ]
      },
      {
        "RuneId": "46",
        "RuneName": "Burning Soul",
        "Property": "4",
        "Color": "4",
        "LockSkill1": "999",
        "LockSkill2": "1000",
        "LockSkill3": "1001",
        "LockSkill4": "1002",
        "LockSkill5": "1003",
        "Price": "15000",
        "SkillTimes": "6",
        "Condition": "You have more than 1 Mountain card on the battlefield.",
        "SkillConditionSlide": "1",
        "SkillConditionType": "4",
        "SkillConditionRace": "4",
        "SkillConditionColor": "0",
        "SkillConditionCompare": "1",
        "SkillConditionValue": "1",
        "ThinkGet": "0",
        "Fragment": "15",
        "BaseExp": "360",
        "ExpArray": [
          "0",
          "200",
          "1000",
          "2800",
          "6000"
        ]
      },
      {
        "RuneId": "47",
        "RuneName": "Lore",
        "Property": "4",
        "Color": "5",
        "LockSkill1": "1100",
        "LockSkill2": "1101",
        "LockSkill3": "1102",
        "LockSkill4": "1103",
        "LockSkill5": "1104",
        "Price": "20000",
        "SkillTimes": "4",
        "Condition": "You have more than 2 Mountain cards in the cemetery.",
        "SkillConditionSlide": "1",
        "SkillConditionType": "2",
        "SkillConditionRace": "4",
        "SkillConditionColor": "0",
        "SkillConditionCompare": "1",
        "SkillConditionValue": "2",
        "ThinkGet": "0",
        "Fragment": "20",
        "BaseExp": "480",
        "ExpArray": [
          "0",
          "240",
          "1200",
          "3360",
          "7200"
        ]
      },
      {
        "RuneId": "48",
        "RuneName": "Holy Well",
        "Property": "2",
        "Color": "4",
        "LockSkill1": "511",
        "LockSkill2": "512",
        "LockSkill3": "513",
        "LockSkill4": "514",
        "LockSkill5": "515",
        "Price": "15000",
        "SkillTimes": "6",
        "Condition": "Your opponent has more than 1 Mountain card in the cemetery.",
        "SkillConditionSlide": "2",
        "SkillConditionType": "2",
        "SkillConditionRace": "4",
        "SkillConditionColor": "0",
        "SkillConditionCompare": "1",
        "SkillConditionValue": "1",
        "ThinkGet": "0",
        "Fragment": "12",
        "BaseExp": "360",
        "ExpArray": [
          "0",
          "200",
          "1000",
          "2800",
          "6000"
        ]
      },
      {
        "RuneId": "49",
        "RuneName": "Frost Bite",
        "Property": "2",
        "Color": "5",
        "LockSkill1": "1057",
        "LockSkill2": "1058",
        "LockSkill3": "1059",
        "LockSkill4": "1060",
        "LockSkill5": "1061",
        "Price": "20000",
        "SkillTimes": "3",
        "Condition": "You have more than 3 Tundra cards in the cemetery.",
        "SkillConditionSlide": "1",
        "SkillConditionType": "2",
        "SkillConditionRace": "1",
        "SkillConditionColor": "0",
        "SkillConditionCompare": "1",
        "SkillConditionValue": "3",
        "ThinkGet": "0",
        "Fragment": "20",
        "BaseExp": "480",
        "ExpArray": [
          "0",
          "240",
          "1200",
          "3360",
          "7200"
        ]
      },
      {
        "RuneId": "50",
        "RuneName": "Flying Stone",
        "Property": "1",
        "Color": "4",
        "LockSkill1": "1089",
        "LockSkill2": "1090",
        "LockSkill3": "1091",
        "LockSkill4": "1092",
        "LockSkill5": "1093",
        "Price": "15000",
        "SkillTimes": "4",
        "Condition": "You have more than 2 Swamp cards in the cemetery.",
        "SkillConditionSlide": "1",
        "SkillConditionType": "2",
        "SkillConditionRace": "3",
        "SkillConditionColor": "0",
        "SkillConditionCompare": "1",
        "SkillConditionValue": "2",
        "ThinkGet": "0",
        "Fragment": "20",
        "BaseExp": "360",
        "ExpArray": [
          "0",
          "200",
          "1000",
          "2800",
          "6000"
        ]
      },
      {
        "RuneId": "51",
        "RuneName": "Dirt",
        "Property": "1",
        "Color": "5",
        "LockSkill1": "1068",
        "LockSkill2": "1069",
        "LockSkill3": "1070",
        "LockSkill4": "1071",
        "LockSkill5": "1072",
        "Price": "20000",
        "SkillTimes": "4",
        "Condition": "You have more than 1 Swamp card in the cemetery.",
        "SkillConditionSlide": "1",
        "SkillConditionType": "2",
        "SkillConditionRace": "3",
        "SkillConditionColor": "0",
        "SkillConditionCompare": "1",
        "SkillConditionValue": "1",
        "ThinkGet": "0",
        "Fragment": "18",
        "BaseExp": "480",
        "ExpArray": [
          "0",
          "240",
          "1200",
          "3360",
          "7200"
        ]
      },
      {
        "RuneId": "52",
        "RuneName": "Raised Flag",
        "Property": "3",
        "Color": "4",
        "LockSkill1": "1080",
        "LockSkill2": "1081",
        "LockSkill3": "1082",
        "LockSkill4": "1083",
        "LockSkill5": "1084",
        "Price": "15000",
        "SkillTimes": "4",
        "Condition": "You have more than 1 Forest card on the battlefield.",
        "SkillConditionSlide": "1",
        "SkillConditionType": "4",
        "SkillConditionRace": "2",
        "SkillConditionColor": "0",
        "SkillConditionCompare": "1",
        "SkillConditionValue": "1",
        "ThinkGet": "0",
        "Fragment": "15",
        "BaseExp": "360",
        "ExpArray": [
          "0",
          "200",
          "1000",
          "2800",
          "6000"
        ]
      },
      {
        "RuneId": "53",
        "RuneName": "Nimble Soul",
        "Property": "3",
        "Color": "5",
        "LockSkill1": "1109",
        "LockSkill2": "1110",
        "LockSkill3": "1111",
        "LockSkill4": "1112",
        "LockSkill5": "1113",
        "Price": "20000",
        "SkillTimes": "3",
        "Condition": "You have more than 2 Forest cards in the cemetery.",
        "SkillConditionSlide": "1",
        "SkillConditionType": "2",
        "SkillConditionRace": "2",
        "SkillConditionColor": "0",
        "SkillConditionCompare": "1",
        "SkillConditionValue": "2",
        "ThinkGet": "0",
        "Fragment": "20",
        "BaseExp": "480",
        "ExpArray": [
          "0",
          "240",
          "1200",
          "3360",
          "7200"
        ]
      },
      {
        "RuneId": "54",
        "RuneName": "Ghost Step",
        "Property": "4",
        "Color": "5",
        "LockSkill1": "1264",
        "LockSkill2": "1264",
        "LockSkill3": "1264",
        "LockSkill4": "1264",
        "LockSkill5": "1264",
        "Price": "20000",
        "SkillTimes": "5",
        "Condition": "You have more than 2 Mountain card on the battlefield.",
        "SkillConditionSlide": "1",
        "SkillConditionType": "4",
        "SkillConditionRace": "4",
        "SkillConditionColor": "0",
        "SkillConditionCompare": "1",
        "SkillConditionValue": "2",
        "ThinkGet": "0",
        "Fragment": "20",
        "BaseExp": "500",
        "ExpArray": [
          "0",
          "240",
          "1200",
          "3360",
          "7200"
        ]
      },
      {
        "RuneId": "55",
        "RuneName": "Dragon Howling",
        "Property": "2",
        "Color": "5",
        "LockSkill1": "1315",
        "LockSkill2": "1316",
        "LockSkill3": "1317",
        "LockSkill4": "1318",
        "LockSkill5": "1319",
        "Price": "20000",
        "SkillTimes": "5",
        "Condition": " Your Hero’s HP is less than 60%",
        "SkillConditionSlide": "1",
        "SkillConditionType": "6",
        "SkillConditionRace": "0",
        "SkillConditionColor": "0",
        "SkillConditionCompare": "3",
        "SkillConditionValue": "60",
        "ThinkGet": "0",
        "Fragment": "25",
        "BaseExp": "500",
        "ExpArray": [
          "0",
          "240",
          "1200",
          "3360",
          "7200"
        ]
      },
      {
        "RuneId": "56",
        "RuneName": "Blight Stone",
        "Property": "1",
        "Color": "5",
        "LockSkill1": "1321",
        "LockSkill2": "1321",
        "LockSkill3": "1321",
        "LockSkill4": "1321",
        "LockSkill5": "1321",
        "Price": "20000",
        "SkillTimes": "3",
        "Condition": "There are more than 2 cards on opponent's battlefield than on yours.",
        "SkillConditionSlide": "1",
        "SkillConditionType": "8",
        "SkillConditionRace": "0",
        "SkillConditionColor": "0",
        "SkillConditionCompare": "1",
        "SkillConditionValue": "1",
        "ThinkGet": "0",
        "Fragment": "20",
        "BaseExp": "500",
        "ExpArray": [
          "0",
          "240",
          "1200",
          "3360",
          "7200"
        ]
      },
      {
        "RuneId": "57",
        "RuneName": "Divine Plea",
        "Property": "3",
        "Color": "5",
        "LockSkill1": "1261",
        "LockSkill2": "1261",
        "LockSkill3": "1261",
        "LockSkill4": "1261",
        "LockSkill5": "1261",
        "Price": "20000",
        "SkillTimes": "3",
        "Condition": "you have more than 2 Forest card on the battlefield",
        "SkillConditionSlide": "1",
        "SkillConditionType": "4",
        "SkillConditionRace": "2",
        "SkillConditionColor": "0",
        "SkillConditionCompare": "1",
        "SkillConditionValue": "2",
        "ThinkGet": "0",
        "Fragment": "25",
        "BaseExp": "500",
        "ExpArray": [
          "0",
          "240",
          "1200",
          "3360",
          "7200"
        ]
      },
      {
        "RuneId": "58",
        "RuneName": "Storm",
        "Property": "2",
        "Color": "5",
        "LockSkill1": "1204",
        "LockSkill2": "1205",
        "LockSkill3": "1206",
        "LockSkill4": "1207",
        "LockSkill5": "1208",
        "Price": "20000",
        "SkillTimes": "5",
        "Condition": "you have more than 1 Tundra card on the battlefield",
        "SkillConditionSlide": "1",
        "SkillConditionType": "4",
        "SkillConditionRace": "1",
        "SkillConditionColor": "0",
        "SkillConditionCompare": "1",
        "SkillConditionValue": "1",
        "ThinkGet": "0",
        "Fragment": "0",
        "BaseExp": "500",
        "ExpArray": [
          "0",
          "240",
          "1200",
          "3360",
          "7200"
        ]
      },
      {
        "RuneId": "59",
        "RuneName": "Fury",
        "Property": "1",
        "Color": "5",
        "LockSkill1": "3035",
        "LockSkill2": "3036",
        "LockSkill3": "3037",
        "LockSkill4": "3038",
        "LockSkill5": "3039",
        "Price": "20000",
        "SkillTimes": "5",
        "Condition": "you have more than 1 Swamp card on the battlefield",
        "SkillConditionSlide": "1",
        "SkillConditionType": "4",
        "SkillConditionRace": "3",
        "SkillConditionColor": "0",
        "SkillConditionCompare": "1",
        "SkillConditionValue": "1",
        "ThinkGet": "0",
        "Fragment": "0",
        "BaseExp": "500",
        "ExpArray": [
          "0",
          "240",
          "1200",
          "3360",
          "7200"
        ]
      },
      {
        "RuneId": "60",
        "RuneName": "Eagle",
        "Property": "2",
        "Color": "5",
        "LockSkill1": "3067",
        "LockSkill2": "3067",
        "LockSkill3": "3067",
        "LockSkill4": "3067",
        "LockSkill5": "3067",
        "Price": "20000",
        "SkillTimes": "5",
        "Condition": "you have more than 2 Tundra card on the battlefield",
        "SkillConditionSlide": "1",
        "SkillConditionType": "4",
        "SkillConditionRace": "1",
        "SkillConditionColor": "0",
        "SkillConditionCompare": "1",
        "SkillConditionValue": "2",
        "ThinkGet": "0",
        "Fragment": "0",
        "BaseExp": "500",
        "ExpArray": [
          "0",
          "240",
          "1200",
          "3360",
          "7200"
        ]
      },
      {
        "RuneId": "65",
        "RuneName": "Monolith",
        "Property": "3",
        "Color": "5",
        "LockSkill1": "3069",
        "LockSkill2": "3069",
        "LockSkill3": "3069",
        "LockSkill4": "3069",
        "LockSkill5": "3069",
        "Price": "20000",
        "SkillTimes": "5",
        "Condition": "you have more than 1 Mountain card on the battlefield",
        "SkillConditionSlide": "1",
        "SkillConditionType": "4",
        "SkillConditionRace": "4",
        "SkillConditionColor": "0",
        "SkillConditionCompare": "1",
        "SkillConditionValue": "1",
        "ThinkGet": "0",
        "Fragment": "0",
        "BaseExp": "500",
        "ExpArray": [
          "0",
          "240",
          "1200",
          "3360",
          "7200"
        ]
      },
      {
        "RuneId": "66",
        "RuneName": "Immobilized",
        "Property": "2",
        "Color": "5",
        "LockSkill1": "3045",
        "LockSkill2": "3046",
        "LockSkill3": "3047",
        "LockSkill4": "3048",
        "LockSkill5": "3049",
        "Price": "20000",
        "SkillTimes": "3",
        "Condition": "your Hero's HP is less than 60%",
        "SkillConditionSlide": "1",
        "SkillConditionType": "6",
        "SkillConditionRace": "0",
        "SkillConditionColor": "0",
        "SkillConditionCompare": "3",
        "SkillConditionValue": "60",
        "ThinkGet": "0",
        "Fragment": "0",
        "BaseExp": "500",
        "ExpArray": [
          "0",
          "240",
          "1200",
          "3360",
          "7200"
        ]
      },
      {
        "RuneId": "68",
        "RuneName": "Sealed",
        "Property": "4",
        "Color": "5",
        "LockSkill1": "3068",
        "LockSkill2": "3068",
        "LockSkill3": "3068",
        "LockSkill4": "3068",
        "LockSkill5": "3068",
        "Price": "20000",
        "SkillTimes": "3",
        "Condition": "you have more than 2 Mountain cards in the cemetery",
        "SkillConditionSlide": "1",
        "SkillConditionType": "2",
        "SkillConditionRace": "4",
        "SkillConditionColor": "0",
        "SkillConditionCompare": "1",
        "SkillConditionValue": "2",
        "ThinkGet": "0",
        "Fragment": "0",
        "BaseExp": "500",
        "ExpArray": [
          "0",
          "240",
          "1200",
          "3360",
          "7200"
        ]
      }
    ]
  },
  "version": {
    "http": "1514179218",
    "stop": "",
    "appversion": "version_1",
    "appurl": "ios://xxx"
  }
}